{   
    "hosts": [
        {
            "id": 10108,
            "nome": "WS DealerNet",
            "ICMPping": 27904
        },
        {
            "id": 10124,
            "nome": "WS DN4",
            "ICMPping": 27974
        },
        {
            "id": 10129,
            "nome": "WS Terminal Service",
            "ICMPping": 28545
        },
        {
            "id": 10106,
            "nome": "LNX GestaoWeb",
            "ICMPping": 28511
        },
        {
            "id": 10118,
            "nome": "LNX Zimbra MTA",
            "ICMPping": 27197,
            "FilaDeferred": 27190
        },
        {
            "id": 10299,
            "nome": "W7 Fortes",
            "ICMPping": 30829
        }
    ]
 
}
